dump.vcd
$date
	Thu Oct 30 20:02:44 2025
$end
$version
	Icarus Verilog
$end
$timescale
	1ps
$end
$scope module testbench1 $end
$var wire 32 ! if_id_npc [31:0] $end
$var wire 32 " if_id_instr [31:0] $end
$var reg 1 # clk $end
$var reg 32 $ ex_mem_pc_npc [31:0] $end
$var reg 1 % ex_mem_pc_src $end
$var reg 1 & rst $end
$scope module u1 $end
$var wire 1 # clk $end
$var wire 32 ' ex_mem_npc [31:0] $end
$var wire 1 % ex_mem_pc_src $end
$var wire 1 & rst $end
$var wire 32 ( pc_out [31:0] $end
$var wire 32 ) pc_in [31:0] $end
$var wire 32 * instructLatch [31:0] $end
$var wire 32 + instr_out [31:0] $end
$var wire 32 , address_out [31:0] $end
$var wire 32 - add_out [31:0] $end
$scope module u1 $end
$var wire 32 . A [31:0] $end
$var wire 1 % sel $end
$var wire 32 / out [31:0] $end
$var wire 32 0 B [31:0] $end
$upscope $end
$scope module u2 $end
$var wire 1 # clk $end
$var wire 32 1 muxed [31:0] $end
$var wire 1 & rst $end
$var reg 32 2 address [31:0] $end
$upscope $end
$scope module u3 $end
$var wire 32 3 A [31:0] $end
$var wire 32 4 B [31:0] $end
$var wire 1 # clk $end
$var wire 1 & rst $end
$var reg 32 5 sum [31:0] $end
$upscope $end
$scope module u4 $end
$var wire 32 6 address [31:0] $end
$var wire 1 # clk $end
$var wire 1 & rst $end
$var reg 32 7 instruction [31:0] $end
$upscope $end
$scope module u5 $end
$var wire 32 8 address [31:0] $end
$var wire 1 # clk $end
$var wire 32 9 instruction [31:0] $end
$var wire 1 & rst $end
$var reg 32 : Oaddress [31:0] $end
$var reg 32 ; Oinstruction [31:0] $end
$upscope $end
$upscope $end
$upscope $end
$enddefinitions $end
$comment Show the parameter values. $end
$dumpall
$end
#0
$dumpvars
b0 ;
b0 :
b0 9
b0 8
b0 7
b0 6
b0 5
b1 4
b0 3
b0 2
b0 1
b0 0
b0 /
b0 .
b0 -
b0 ,
b0 +
b0 *
b0 )
b0 (
b0 '
1&
0%
b0 $
1#
b0 "
b0 !
$end
#5000
0#
#7000
0&
#10000
b10100000000000000000000010101010 *
b10100000000000000000000010101010 7
b10100000000000000000000010101010 9
b1 -
b1 0
b1 5
b1 8
1%
1#
#15000
0#
#20000
b10000000000000000000000000000 (
b10000000000000000000000000000 2
b10000000000000000000000000000 3
b10000000000000000000000000000 6
b10100000000000000000000010101010 "
b10100000000000000000000010101010 +
b10100000000000000000000010101010 ;
b1 !
b1 ,
b1 :
b10000000000000000000000000000 )
b10000000000000000000000000000 /
b10000000000000000000000000000 1
1#
b10000000000000000000000000000 $
b10000000000000000000000000000 '
b10000000000000000000000000000 .
#25000
0#
#30000
b10000000000000000000000010001 *
b10000000000000000000000010001 7
b10000000000000000000000010001 9
b10000000000000000000000000001 -
b10000000000000000000000000001 0
b10000000000000000000000000001 5
b10000000000000000000000000001 8
b100000000000000000000000000000 (
b100000000000000000000000000000 2
b100000000000000000000000000000 3
b100000000000000000000000000000 6
b100000000000000000000000000000 )
b100000000000000000000000000000 /
b100000000000000000000000000000 1
1#
b100000000000000000000000000000 $
b100000000000000000000000000000 '
b100000000000000000000000000000 .
#35000
0#
#40000
b100000000000000000000000000001 -
b100000000000000000000000000001 0
b100000000000000000000000000001 5
b100000000000000000000000000001 8
b100000000000000000000000100010 *
b100000000000000000000000100010 7
b100000000000000000000000100010 9
b110000000000000000000000000000 (
b110000000000000000000000000000 2
b110000000000000000000000000000 3
b110000000000000000000000000000 6
b10000000000000000000000010001 "
b10000000000000000000000010001 +
b10000000000000000000000010001 ;
b10000000000000000000000000001 !
b10000000000000000000000000001 ,
b10000000000000000000000000001 :
b110000000000000000000000000000 )
b110000000000000000000000000000 /
b110000000000000000000000000000 1
1#
b110000000000000000000000000000 $
b110000000000000000000000000000 '
b110000000000000000000000000000 .
#45000
0#
#50000
b110000000000000000000000110011 *
b110000000000000000000000110011 7
b110000000000000000000000110011 9
b110000000000000000000000000001 -
b110000000000000000000000000001 0
b110000000000000000000000000001 5
b110000000000000000000000000001 8
b1000000000000000000000000000000 (
b1000000000000000000000000000000 2
b1000000000000000000000000000000 3
b1000000000000000000000000000000 6
b100000000000000000000000100010 "
b100000000000000000000000100010 +
b100000000000000000000000100010 ;
b100000000000000000000000000001 !
b100000000000000000000000000001 ,
b100000000000000000000000000001 :
b1000000000000000000000000000000 )
b1000000000000000000000000000000 /
b1000000000000000000000000000000 1
1#
b1000000000000000000000000000000 $
b1000000000000000000000000000000 '
b1000000000000000000000000000000 .
#55000
0#
#60000
b1000000000000000000000000000001 -
b1000000000000000000000000000001 0
b1000000000000000000000000000001 5
b1000000000000000000000000000001 8
b1000000000000000000000001000100 *
b1000000000000000000000001000100 7
b1000000000000000000000001000100 9
b100000000000000000000000000000 (
b100000000000000000000000000000 2
b100000000000000000000000000000 3
b100000000000000000000000000000 6
b110000000000000000000000110011 "
b110000000000000000000000110011 +
b110000000000000000000000110011 ;
b110000000000000000000000000001 !
b110000000000000000000000000001 ,
b110000000000000000000000000001 :
b100000000000000000000000000000 )
b100000000000000000000000000000 /
b100000000000000000000000000000 1
1#
b100000000000000000000000000000 $
b100000000000000000000000000000 '
b100000000000000000000000000000 .
#65000
0#
#70000
b100000000000000000000000100010 *
b100000000000000000000000100010 7
b100000000000000000000000100010 9
b100000000000000000000000000001 -
b100000000000000000000000000001 0
b100000000000000000000000000001 5
b100000000000000000000000000001 8
b10000000000000000000000000000 (
b10000000000000000000000000000 2
b10000000000000000000000000000 3
b10000000000000000000000000000 6
b1000000000000000000000001000100 "
b1000000000000000000000001000100 +
b1000000000000000000000001000100 ;
b1000000000000000000000000000001 !
b1000000000000000000000000000001 ,
b1000000000000000000000000000001 :
b10000000000000000000000000000 )
b10000000000000000000000000000 /
b10000000000000000000000000000 1
1#
b10000000000000000000000000000 $
b10000000000000000000000000000 '
b10000000000000000000000000000 .
#75000
0#
#80000
b10000000000000000000000000001 -
b10000000000000000000000000001 0
b10000000000000000000000000001 5
b10000000000000000000000000001 8
b10000000000000000000000010001 *
b10000000000000000000000010001 7
b10000000000000000000000010001 9
b10000000000000000000000000001 (
b10000000000000000000000000001 2
b10000000000000000000000000001 3
b10000000000000000000000000001 6
b100000000000000000000000100010 "
b100000000000000000000000100010 +
b100000000000000000000000100010 ;
b100000000000000000000000000001 !
b100000000000000000000000000001 ,
b100000000000000000000000000001 :
b10000000000000000000000000001 )
b10000000000000000000000000001 /
b10000000000000000000000000001 1
1#
0%
#85000
0#
#90000
b10000000000000000000000000010 (
b10000000000000000000000000010 2
b10000000000000000000000000010 3
b10000000000000000000000000010 6
b10000000000000000000000000010 )
b10000000000000000000000000010 /
b10000000000000000000000000010 1
b10000000000000000000000000010 -
b10000000000000000000000000010 0
b10000000000000000000000000010 5
b10000000000000000000000000010 8
b10000000000000000000000010001 "
b10000000000000000000000010001 +
b10000000000000000000000010001 ;
b10000000000000000000000000001 !
b10000000000000000000000000001 ,
b10000000000000000000000000001 :
1#
#95000
0#
#100000
b10000000000000000000000000011 (
b10000000000000000000000000011 2
b10000000000000000000000000011 3
b10000000000000000000000000011 6
b10000000000000000000000000011 )
b10000000000000000000000000011 /
b10000000000000000000000000011 1
b10000000000000000000000000011 -
b10000000000000000000000000011 0
b10000000000000000000000000011 5
b10000000000000000000000000011 8
b10000000000000000000000000010 !
b10000000000000000000000000010 ,
b10000000000000000000000000010 :
1#
#105000
0#
#110000
b10000000000000000000000000100 (
b10000000000000000000000000100 2
b10000000000000000000000000100 3
b10000000000000000000000000100 6
b10000000000000000000000000100 )
b10000000000000000000000000100 /
b10000000000000000000000000100 1
b10000000000000000000000000100 -
b10000000000000000000000000100 0
b10000000000000000000000000100 5
b10000000000000000000000000100 8
b10000000000000000000000000011 !
b10000000000000000000000000011 ,
b10000000000000000000000000011 :
1#
#115000
0#
#120000
b10000000000000000000000000101 (
b10000000000000000000000000101 2
b10000000000000000000000000101 3
b10000000000000000000000000101 6
b10000000000000000000000000101 )
b10000000000000000000000000101 /
b10000000000000000000000000101 1
b10000000000000000000000000101 -
b10000000000000000000000000101 0
b10000000000000000000000000101 5
b10000000000000000000000000101 8
b10000000000000000000000000100 !
b10000000000000000000000000100 ,
b10000000000000000000000000100 :
1#
#125000
0#
#130000
b10000000000000000000000000110 (
b10000000000000000000000000110 2
b10000000000000000000000000110 3
b10000000000000000000000000110 6
b10000000000000000000000000110 )
b10000000000000000000000000110 /
b10000000000000000000000000110 1
b10000000000000000000000000110 -
b10000000000000000000000000110 0
b10000000000000000000000000110 5
b10000000000000000000000000110 8
b10000000000000000000000000101 !
b10000000000000000000000000101 ,
b10000000000000000000000000101 :
1#
#135000
0#
#140000
b10000000000000000000000000111 (
b10000000000000000000000000111 2
b10000000000000000000000000111 3
b10000000000000000000000000111 6
b10000000000000000000000000111 )
b10000000000000000000000000111 /
b10000000000000000000000000111 1
b10000000000000000000000000111 -
b10000000000000000000000000111 0
b10000000000000000000000000111 5
b10000000000000000000000000111 8
b10000000000000000000000000110 !
b10000000000000000000000000110 ,
b10000000000000000000000000110 :
1#
#145000
0#
#150000
b10000000000000000000000001000 (
b10000000000000000000000001000 2
b10000000000000000000000001000 3
b10000000000000000000000001000 6
b10000000000000000000000001000 )
b10000000000000000000000001000 /
b10000000000000000000000001000 1
b10000000000000000000000001000 -
b10000000000000000000000001000 0
b10000000000000000000000001000 5
b10000000000000000000000001000 8
b10000000000000000000000000111 !
b10000000000000000000000000111 ,
b10000000000000000000000000111 :
1#
#155000
0#
#160000
b10000000000000000000000001001 (
b10000000000000000000000001001 2
b10000000000000000000000001001 3
b10000000000000000000000001001 6
b10000000000000000000000001001 )
b10000000000000000000000001001 /
b10000000000000000000000001001 1
b10000000000000000000000001001 -
b10000000000000000000000001001 0
b10000000000000000000000001001 5
b10000000000000000000000001001 8
b10000000000000000000000001000 !
b10000000000000000000000001000 ,
b10000000000000000000000001000 :
1#
#165000
0#
#170000
b10000000000000000000000001010 (
b10000000000000000000000001010 2
b10000000000000000000000001010 3
b10000000000000000000000001010 6
b10000000000000000000000001010 )
b10000000000000000000000001010 /
b10000000000000000000000001010 1
b10000000000000000000000001010 -
b10000000000000000000000001010 0
b10000000000000000000000001010 5
b10000000000000000000000001010 8
b10000000000000000000000001001 !
b10000000000000000000000001001 ,
b10000000000000000000000001001 :
1#
#175000
0#
#180000
b10000000000000000000000001011 -
b10000000000000000000000001011 0
b10000000000000000000000001011 5
b10000000000000000000000001011 8
b10000000000000000000000000000 (
b10000000000000000000000000000 2
b10000000000000000000000000000 3
b10000000000000000000000000000 6
b10000000000000000000000001010 !
b10000000000000000000000001010 ,
b10000000000000000000000001010 :
b10000000000000000000000000000 )
b10000000000000000000000000000 /
b10000000000000000000000000000 1
1#
1%
#185000
0#
#190000
b10000000000000000000000000001 -
b10000000000000000000000000001 0
b10000000000000000000000000001 5
b10000000000000000000000000001 8
b10000000000000000000000001011 !
b10000000000000000000000001011 ,
b10000000000000000000000001011 :
1#
#195000
0#
#200000
b1010000000000000000000000000000 (
b1010000000000000000000000000000 2
b1010000000000000000000000000000 3
b1010000000000000000000000000000 6
b1010000000000000000000000000000 )
b1010000000000000000000000000000 /
b1010000000000000000000000000000 1
b10000000000000000000000000001 !
b10000000000000000000000000001 ,
b10000000000000000000000000001 :
b1010000000000000000000000000000 $
b1010000000000000000000000000000 '
b1010000000000000000000000000000 .
1#
#205000
0#
#210000
b1010000000000000000000001010101 *
b1010000000000000000000001010101 7
b1010000000000000000000001010101 9
b1010000000000000000000000000001 -
b1010000000000000000000000000001 0
b1010000000000000000000000000001 5
b1010000000000000000000000000001 8
b10000000000000000000000000000 (
b10000000000000000000000000000 2
b10000000000000000000000000000 3
b10000000000000000000000000000 6
b10000000000000000000000000000 )
b10000000000000000000000000000 /
b10000000000000000000000000000 1
1#
b10000000000000000000000000000 $
b10000000000000000000000000000 '
b10000000000000000000000000000 .
#215000
0#
#220000
b10000000000000000000000000001 -
b10000000000000000000000000001 0
b10000000000000000000000000001 5
b10000000000000000000000000001 8
b10000000000000000000000010001 *
b10000000000000000000000010001 7
b10000000000000000000000010001 9
b1100000000000000000000000000000 (
b1100000000000000000000000000000 2
b1100000000000000000000000000000 3
b1100000000000000000000000000000 6
b1010000000000000000000001010101 "
b1010000000000000000000001010101 +
b1010000000000000000000001010101 ;
b1010000000000000000000000000001 !
b1010000000000000000000000000001 ,
b1010000000000000000000000000001 :
b1100000000000000000000000000000 )
b1100000000000000000000000000000 /
b1100000000000000000000000000000 1
1#
b1100000000000000000000000000000 $
b1100000000000000000000000000000 '
b1100000000000000000000000000000 .
#225000
0#
#230000
b1100000000000000000000001100110 *
b1100000000000000000000001100110 7
b1100000000000000000000001100110 9
b1100000000000000000000000000001 -
b1100000000000000000000000000001 0
b1100000000000000000000000000001 5
b1100000000000000000000000000001 8
b1110000000000000000000000000000 (
b1110000000000000000000000000000 2
b1110000000000000000000000000000 3
b1110000000000000000000000000000 6
b10000000000000000000000010001 "
b10000000000000000000000010001 +
b10000000000000000000000010001 ;
b10000000000000000000000000001 !
b10000000000000000000000000001 ,
b10000000000000000000000000001 :
b1110000000000000000000000000000 )
b1110000000000000000000000000000 /
b1110000000000000000000000000000 1
1#
b1110000000000000000000000000000 $
b1110000000000000000000000000000 '
b1110000000000000000000000000000 .
#235000
0#
#240000
b1110000000000000000000000000001 -
b1110000000000000000000000000001 0
b1110000000000000000000000000001 5
b1110000000000000000000000000001 8
b1110000000000000000000001110111 *
b1110000000000000000000001110111 7
b1110000000000000000000001110111 9
b100000000000000000000000000000 (
b100000000000000000000000000000 2
b100000000000000000000000000000 3
b100000000000000000000000000000 6
b1100000000000000000000001100110 "
b1100000000000000000000001100110 +
b1100000000000000000000001100110 ;
b1100000000000000000000000000001 !
b1100000000000000000000000000001 ,
b1100000000000000000000000000001 :
b100000000000000000000000000000 )
b100000000000000000000000000000 /
b100000000000000000000000000000 1
1#
b100000000000000000000000000000 $
b100000000000000000000000000000 '
b100000000000000000000000000000 .
#245000
0#
#250000
b100000000000000000000000100010 *
b100000000000000000000000100010 7
b100000000000000000000000100010 9
b100000000000000000000000000001 -
b100000000000000000000000000001 0
b100000000000000000000000000001 5
b100000000000000000000000000001 8
b10000000000000000000000000000000 (
b10000000000000000000000000000000 2
b10000000000000000000000000000000 3
b10000000000000000000000000000000 6
b1110000000000000000000001110111 "
b1110000000000000000000001110111 +
b1110000000000000000000001110111 ;
b1110000000000000000000000000001 !
b1110000000000000000000000000001 ,
b1110000000000000000000000000001 :
b10000000000000000000000000000000 )
b10000000000000000000000000000000 /
b10000000000000000000000000000000 1
1#
b10000000000000000000000000000000 $
b10000000000000000000000000000000 '
b10000000000000000000000000000000 .
#255000
0#
#260000
b10000000000000000000000000000001 -
b10000000000000000000000000000001 0
b10000000000000000000000000000001 5
b10000000000000000000000000000001 8
b10000000000000000000000010001000 *
b10000000000000000000000010001000 7
b10000000000000000000000010001000 9
b10010000000000000000000000000000 (
b10010000000000000000000000000000 2
b10010000000000000000000000000000 3
b10010000000000000000000000000000 6
b100000000000000000000000100010 "
b100000000000000000000000100010 +
b100000000000000000000000100010 ;
b100000000000000000000000000001 !
b100000000000000000000000000001 ,
b100000000000000000000000000001 :
b10010000000000000000000000000000 )
b10010000000000000000000000000000 /
b10010000000000000000000000000000 1
1#
b10010000000000000000000000000000 $
b10010000000000000000000000000000 '
b10010000000000000000000000000000 .
#265000
0#
#270000
b10010000000000000000000010011001 *
b10010000000000000000000010011001 7
b10010000000000000000000010011001 9
b10010000000000000000000000000001 -
b10010000000000000000000000000001 0
b10010000000000000000000000000001 5
b10010000000000000000000000000001 8
b10010000000000000000000000000001 (
b10010000000000000000000000000001 2
b10010000000000000000000000000001 3
b10010000000000000000000000000001 6
b10000000000000000000000010001000 "
b10000000000000000000000010001000 +
b10000000000000000000000010001000 ;
b10000000000000000000000000000001 !
b10000000000000000000000000000001 ,
b10000000000000000000000000000001 :
b10010000000000000000000000000001 )
b10010000000000000000000000000001 /
b10010000000000000000000000000001 1
1#
0%
b10100000000000000000000000000000 $
b10100000000000000000000000000000 '
b10100000000000000000000000000000 .
#275000
0#
#280000
b10010000000000000000000000000010 (
b10010000000000000000000000000010 2
b10010000000000000000000000000010 3
b10010000000000000000000000000010 6
b10010000000000000000000000000010 )
b10010000000000000000000000000010 /
b10010000000000000000000000000010 1
b10010000000000000000000000000010 -
b10010000000000000000000000000010 0
b10010000000000000000000000000010 5
b10010000000000000000000000000010 8
b10010000000000000000000010011001 "
b10010000000000000000000010011001 +
b10010000000000000000000010011001 ;
b10010000000000000000000000000001 !
b10010000000000000000000000000001 ,
b10010000000000000000000000000001 :
1#
#285000
0#
#290000
b10010000000000000000000000000011 (
b10010000000000000000000000000011 2
b10010000000000000000000000000011 3
b10010000000000000000000000000011 6
b10010000000000000000000000000011 )
b10010000000000000000000000000011 /
b10010000000000000000000000000011 1
b10010000000000000000000000000011 -
b10010000000000000000000000000011 0
b10010000000000000000000000000011 5
b10010000000000000000000000000011 8
b10010000000000000000000000000010 !
b10010000000000000000000000000010 ,
b10010000000000000000000000000010 :
1#
#295000
0#
#300000
b10010000000000000000000000000100 (
b10010000000000000000000000000100 2
b10010000000000000000000000000100 3
b10010000000000000000000000000100 6
b10010000000000000000000000000100 )
b10010000000000000000000000000100 /
b10010000000000000000000000000100 1
b10010000000000000000000000000100 -
b10010000000000000000000000000100 0
b10010000000000000000000000000100 5
b10010000000000000000000000000100 8
b10010000000000000000000000000011 !
b10010000000000000000000000000011 ,
b10010000000000000000000000000011 :
1#
#305000
0#
#310000
b10010000000000000000000000000101 (
b10010000000000000000000000000101 2
b10010000000000000000000000000101 3
b10010000000000000000000000000101 6
b10010000000000000000000000000101 )
b10010000000000000000000000000101 /
b10010000000000000000000000000101 1
b10010000000000000000000000000101 -
b10010000000000000000000000000101 0
b10010000000000000000000000000101 5
b10010000000000000000000000000101 8
b10010000000000000000000000000100 !
b10010000000000000000000000000100 ,
b10010000000000000000000000000100 :
1#
#315000
0#
#320000
b10010000000000000000000000000110 (
b10010000000000000000000000000110 2
b10010000000000000000000000000110 3
b10010000000000000000000000000110 6
b10010000000000000000000000000110 )
b10010000000000000000000000000110 /
b10010000000000000000000000000110 1
b10010000000000000000000000000110 -
b10010000000000000000000000000110 0
b10010000000000000000000000000110 5
b10010000000000000000000000000110 8
b10010000000000000000000000000101 !
b10010000000000000000000000000101 ,
b10010000000000000000000000000101 :
1#
#325000
0#
#330000
b10010000000000000000000000000111 (
b10010000000000000000000000000111 2
b10010000000000000000000000000111 3
b10010000000000000000000000000111 6
b10010000000000000000000000000111 )
b10010000000000000000000000000111 /
b10010000000000000000000000000111 1
b10010000000000000000000000000111 -
b10010000000000000000000000000111 0
b10010000000000000000000000000111 5
b10010000000000000000000000000111 8
b10010000000000000000000000000110 !
b10010000000000000000000000000110 ,
b10010000000000000000000000000110 :
1#
#335000
0#
#340000
b10010000000000000000000000001000 (
b10010000000000000000000000001000 2
b10010000000000000000000000001000 3
b10010000000000000000000000001000 6
b10010000000000000000000000001000 )
b10010000000000000000000000001000 /
b10010000000000000000000000001000 1
b10010000000000000000000000001000 -
b10010000000000000000000000001000 0
b10010000000000000000000000001000 5
b10010000000000000000000000001000 8
b10010000000000000000000000000111 !
b10010000000000000000000000000111 ,
b10010000000000000000000000000111 :
1#
#345000
0#
#350000
b10010000000000000000000000001001 (
b10010000000000000000000000001001 2
b10010000000000000000000000001001 3
b10010000000000000000000000001001 6
b10010000000000000000000000001001 )
b10010000000000000000000000001001 /
b10010000000000000000000000001001 1
b10010000000000000000000000001001 -
b10010000000000000000000000001001 0
b10010000000000000000000000001001 5
b10010000000000000000000000001001 8
b10010000000000000000000000001000 !
b10010000000000000000000000001000 ,
b10010000000000000000000000001000 :
1#
#355000
0#
#360000
b10010000000000000000000000001010 (
b10010000000000000000000000001010 2
b10010000000000000000000000001010 3
b10010000000000000000000000001010 6
b10010000000000000000000000001010 )
b10010000000000000000000000001010 /
b10010000000000000000000000001010 1
b10010000000000000000000000001010 -
b10010000000000000000000000001010 0
b10010000000000000000000000001010 5
b10010000000000000000000000001010 8
b10010000000000000000000000001001 !
b10010000000000000000000000001001 ,
b10010000000000000000000000001001 :
1#
#365000
0#
#370000
b10010000000000000000000000001011 (
b10010000000000000000000000001011 2
b10010000000000000000000000001011 3
b10010000000000000000000000001011 6
b10010000000000000000000000001011 )
b10010000000000000000000000001011 /
b10010000000000000000000000001011 1
b10010000000000000000000000001011 -
b10010000000000000000000000001011 0
b10010000000000000000000000001011 5
b10010000000000000000000000001011 8
b10010000000000000000000000001010 !
b10010000000000000000000000001010 ,
b10010000000000000000000000001010 :
1#
#375000
0#
#380000
b10010000000000000000000000001100 (
b10010000000000000000000000001100 2
b10010000000000000000000000001100 3
b10010000000000000000000000001100 6
b10010000000000000000000000001100 )
b10010000000000000000000000001100 /
b10010000000000000000000000001100 1
b10010000000000000000000000001100 -
b10010000000000000000000000001100 0
b10010000000000000000000000001100 5
b10010000000000000000000000001100 8
b10010000000000000000000000001011 !
b10010000000000000000000000001011 ,
b10010000000000000000000000001011 :
1#
#385000
0#
#390000
b10010000000000000000000000001101 (
b10010000000000000000000000001101 2
b10010000000000000000000000001101 3
b10010000000000000000000000001101 6
b10010000000000000000000000001101 )
b10010000000000000000000000001101 /
b10010000000000000000000000001101 1
b10010000000000000000000000001101 -
b10010000000000000000000000001101 0
b10010000000000000000000000001101 5
b10010000000000000000000000001101 8
b10010000000000000000000000001100 !
b10010000000000000000000000001100 ,
b10010000000000000000000000001100 :
1#
#395000
0#
#400000
b10010000000000000000000000001110 (
b10010000000000000000000000001110 2
b10010000000000000000000000001110 3
b10010000000000000000000000001110 6
b10010000000000000000000000001110 )
b10010000000000000000000000001110 /
b10010000000000000000000000001110 1
b10010000000000000000000000001110 -
b10010000000000000000000000001110 0
b10010000000000000000000000001110 5
b10010000000000000000000000001110 8
b10010000000000000000000000001101 !
b10010000000000000000000000001101 ,
b10010000000000000000000000001101 :
1#
#405000
0#
#410000
b10010000000000000000000000001111 (
b10010000000000000000000000001111 2
b10010000000000000000000000001111 3
b10010000000000000000000000001111 6
b10010000000000000000000000001111 )
b10010000000000000000000000001111 /
b10010000000000000000000000001111 1
b10010000000000000000000000001111 -
b10010000000000000000000000001111 0
b10010000000000000000000000001111 5
b10010000000000000000000000001111 8
b10010000000000000000000000001110 !
b10010000000000000000000000001110 ,
b10010000000000000000000000001110 :
1#
#415000
0#
#420000
b10010000000000000000000000010000 (
b10010000000000000000000000010000 2
b10010000000000000000000000010000 3
b10010000000000000000000000010000 6
b10010000000000000000000000010000 )
b10010000000000000000000000010000 /
b10010000000000000000000000010000 1
b10010000000000000000000000010000 -
b10010000000000000000000000010000 0
b10010000000000000000000000010000 5
b10010000000000000000000000010000 8
b10010000000000000000000000001111 !
b10010000000000000000000000001111 ,
b10010000000000000000000000001111 :
1#
#425000
0#
#430000
b10010000000000000000000000010001 (
b10010000000000000000000000010001 2
b10010000000000000000000000010001 3
b10010000000000000000000000010001 6
b10010000000000000000000000010001 )
b10010000000000000000000000010001 /
b10010000000000000000000000010001 1
b10010000000000000000000000010001 -
b10010000000000000000000000010001 0
b10010000000000000000000000010001 5
b10010000000000000000000000010001 8
b10010000000000000000000000010000 !
b10010000000000000000000000010000 ,
b10010000000000000000000000010000 :
1#
#435000
0#
#440000
b10010000000000000000000000010010 (
b10010000000000000000000000010010 2
b10010000000000000000000000010010 3
b10010000000000000000000000010010 6
b10010000000000000000000000010010 )
b10010000000000000000000000010010 /
b10010000000000000000000000010010 1
b10010000000000000000000000010010 -
b10010000000000000000000000010010 0
b10010000000000000000000000010010 5
b10010000000000000000000000010010 8
b10010000000000000000000000010001 !
b10010000000000000000000000010001 ,
b10010000000000000000000000010001 :
1#
#445000
0#
#450000
b10010000000000000000000000010011 (
b10010000000000000000000000010011 2
b10010000000000000000000000010011 3
b10010000000000000000000000010011 6
b10010000000000000000000000010011 )
b10010000000000000000000000010011 /
b10010000000000000000000000010011 1
b10010000000000000000000000010011 -
b10010000000000000000000000010011 0
b10010000000000000000000000010011 5
b10010000000000000000000000010011 8
b10010000000000000000000000010010 !
b10010000000000000000000000010010 ,
b10010000000000000000000000010010 :
1#
#455000
0#
#460000
b10010000000000000000000000010100 (
b10010000000000000000000000010100 2
b10010000000000000000000000010100 3
b10010000000000000000000000010100 6
b10010000000000000000000000010100 )
b10010000000000000000000000010100 /
b10010000000000000000000000010100 1
b10010000000000000000000000010100 -
b10010000000000000000000000010100 0
b10010000000000000000000000010100 5
b10010000000000000000000000010100 8
b10010000000000000000000000010011 !
b10010000000000000000000000010011 ,
b10010000000000000000000000010011 :
1#
#465000
0#
#470000
b10010000000000000000000000010101 (
b10010000000000000000000000010101 2
b10010000000000000000000000010101 3
b10010000000000000000000000010101 6
b10010000000000000000000000010101 )
b10010000000000000000000000010101 /
b10010000000000000000000000010101 1
b10010000000000000000000000010101 -
b10010000000000000000000000010101 0
b10010000000000000000000000010101 5
b10010000000000000000000000010101 8
b10010000000000000000000000010100 !
b10010000000000000000000000010100 ,
b10010000000000000000000000010100 :
1#
#475000
0#
#480000
b10010000000000000000000000010110 (
b10010000000000000000000000010110 2
b10010000000000000000000000010110 3
b10010000000000000000000000010110 6
b10010000000000000000000000010110 )
b10010000000000000000000000010110 /
b10010000000000000000000000010110 1
b10010000000000000000000000010110 -
b10010000000000000000000000010110 0
b10010000000000000000000000010110 5
b10010000000000000000000000010110 8
b10010000000000000000000000010101 !
b10010000000000000000000000010101 ,
b10010000000000000000000000010101 :
1#
#485000
0#
#490000
b10010000000000000000000000010111 (
b10010000000000000000000000010111 2
b10010000000000000000000000010111 3
b10010000000000000000000000010111 6
b10010000000000000000000000010111 )
b10010000000000000000000000010111 /
b10010000000000000000000000010111 1
b10010000000000000000000000010111 -
b10010000000000000000000000010111 0
b10010000000000000000000000010111 5
b10010000000000000000000000010111 8
b10010000000000000000000000010110 !
b10010000000000000000000000010110 ,
b10010000000000000000000000010110 :
1#
#495000
0#
#500000
b10010000000000000000000000011000 (
b10010000000000000000000000011000 2
b10010000000000000000000000011000 3
b10010000000000000000000000011000 6
b10010000000000000000000000011000 )
b10010000000000000000000000011000 /
b10010000000000000000000000011000 1
b10010000000000000000000000011000 -
b10010000000000000000000000011000 0
b10010000000000000000000000011000 5
b10010000000000000000000000011000 8
b10010000000000000000000000010111 !
b10010000000000000000000000010111 ,
b10010000000000000000000000010111 :
1#
#505000
0#
#510000
b10010000000000000000000000011001 (
b10010000000000000000000000011001 2
b10010000000000000000000000011001 3
b10010000000000000000000000011001 6
b10010000000000000000000000011001 )
b10010000000000000000000000011001 /
b10010000000000000000000000011001 1
b10010000000000000000000000011001 -
b10010000000000000000000000011001 0
b10010000000000000000000000011001 5
b10010000000000000000000000011001 8
b10010000000000000000000000011000 !
b10010000000000000000000000011000 ,
b10010000000000000000000000011000 :
1#
#515000
0#
#520000
b10010000000000000000000000011010 (
b10010000000000000000000000011010 2
b10010000000000000000000000011010 3
b10010000000000000000000000011010 6
b10010000000000000000000000011010 )
b10010000000000000000000000011010 /
b10010000000000000000000000011010 1
b10010000000000000000000000011010 -
b10010000000000000000000000011010 0
b10010000000000000000000000011010 5
b10010000000000000000000000011010 8
b10010000000000000000000000011001 !
b10010000000000000000000000011001 ,
b10010000000000000000000000011001 :
1#
#525000
0#
#530000
b10010000000000000000000000011011 (
b10010000000000000000000000011011 2
b10010000000000000000000000011011 3
b10010000000000000000000000011011 6
b10010000000000000000000000011011 )
b10010000000000000000000000011011 /
b10010000000000000000000000011011 1
b10010000000000000000000000011011 -
b10010000000000000000000000011011 0
b10010000000000000000000000011011 5
b10010000000000000000000000011011 8
b10010000000000000000000000011010 !
b10010000000000000000000000011010 ,
b10010000000000000000000000011010 :
1#
#535000
0#
#540000
b10010000000000000000000000011100 (
b10010000000000000000000000011100 2
b10010000000000000000000000011100 3
b10010000000000000000000000011100 6
b10010000000000000000000000011100 )
b10010000000000000000000000011100 /
b10010000000000000000000000011100 1
b10010000000000000000000000011100 -
b10010000000000000000000000011100 0
b10010000000000000000000000011100 5
b10010000000000000000000000011100 8
b10010000000000000000000000011011 !
b10010000000000000000000000011011 ,
b10010000000000000000000000011011 :
1#
#545000
0#
#550000
b10010000000000000000000000011101 (
b10010000000000000000000000011101 2
b10010000000000000000000000011101 3
b10010000000000000000000000011101 6
b10010000000000000000000000011101 )
b10010000000000000000000000011101 /
b10010000000000000000000000011101 1
b10010000000000000000000000011101 -
b10010000000000000000000000011101 0
b10010000000000000000000000011101 5
b10010000000000000000000000011101 8
b10010000000000000000000000011100 !
b10010000000000000000000000011100 ,
b10010000000000000000000000011100 :
1#
#555000
0#
#560000
b10010000000000000000000000011110 (
b10010000000000000000000000011110 2
b10010000000000000000000000011110 3
b10010000000000000000000000011110 6
b10010000000000000000000000011110 )
b10010000000000000000000000011110 /
b10010000000000000000000000011110 1
b10010000000000000000000000011110 -
b10010000000000000000000000011110 0
b10010000000000000000000000011110 5
b10010000000000000000000000011110 8
b10010000000000000000000000011101 !
b10010000000000000000000000011101 ,
b10010000000000000000000000011101 :
1#
#565000
0#
#570000
b10010000000000000000000000011111 (
b10010000000000000000000000011111 2
b10010000000000000000000000011111 3
b10010000000000000000000000011111 6
b10010000000000000000000000011111 )
b10010000000000000000000000011111 /
b10010000000000000000000000011111 1
b10010000000000000000000000011111 -
b10010000000000000000000000011111 0
b10010000000000000000000000011111 5
b10010000000000000000000000011111 8
b10010000000000000000000000011110 !
b10010000000000000000000000011110 ,
b10010000000000000000000000011110 :
1#
#575000
0#
